<?xml version="1.0" encoding="UTF-8" standalone="no"?>
<svg
   id="Ebene_1"
   viewBox="0 0 143.19977 36.799999"
   version="1.1"
   sodipodi:docname="campus.svg"
   width="143.19977"
   height="36.799999"
   inkscape:version="1.1.2 (0a00cf5339, 2022-02-04)"
   xmlns:inkscape="http://www.inkscape.org/namespaces/inkscape"
   xmlns:sodipodi="http://sodipodi.sourceforge.net/DTD/sodipodi-0.dtd"
   xmlns="http://www.w3.org/2000/svg"
   xmlns:svg="http://www.w3.org/2000/svg">
  <sodipodi:namedview
     id="namedview11"
     pagecolor="#ffffff"
     bordercolor="#666666"
     borderopacity="1.0"
     inkscape:pageshadow="2"
     inkscape:pageopacity="1"
     inkscape:pagecheckerboard="true"
     showgrid="false"
     inkscape:zoom="9.0431061"
     inkscape:cx="58.221146"
     inkscape:cy="23.387982"
     inkscape:window-width="3018"
     inkscape:window-height="1664"
     inkscape:window-x="54"
     inkscape:window-y="27"
     inkscape:window-maximized="1"
     inkscape:current-layer="text9929" />
  <defs
     id="defs4">
    <style
       id="style2">.cls-1{fill:#fff;font-family:Frutiger-Light, Frutiger;font-size:44px;font-weight:300;}</style>
  </defs>
  <g
     aria-label="Campus"
     id="text9929"
     style="font-size:40px;line-height:1.25;font-family:'Frutiger LT Pro';-inkscape-font-specification:'Frutiger LT Pro'">
    <path
       d="m 20.84,24 c -1.36,0.8 -3.92,1.36 -6.08,1.36 -5.9599999,0 -10.5199999,-4.52 -10.5199999,-10.92 0,-6.3200004 4.36,-10.9200004 10.7199999,-10.9200004 2.04,0 4,0.52 5.76,1.56 l 0.32,-3.88 C 19.04,0.31999962 16.96,-3.8146973e-7 14.76,-3.8146973e-7 6.1600001,-3.8146973e-7 1.1444092e-7,5.8399996 1.1444092e-7,14.32 1.1444092e-7,23.12 5.8000001,28.88 14.72,28.88 c 2.72,0 4.8,-0.36 6.36,-1 z"
       style="fill:#000000"
       id="path40246" />
    <path
       d="m 41.559926,28.4 c -0.12,-0.96 -0.16,-2.28 -0.16,-3.52 v -8.96 c 0,-5.72 -2.56,-8.4000004 -8.2,-8.4000004 -2.6,0 -4.84,0.8 -6.72,1.92 l 0.2,3.2000004 c 1.64,-1.36 3.88,-2.08 5.92,-2.08 3.56,0 5.04,1.6 5.04,5.32 -0.84,-0.04 -2.12,-0.08 -3.72,-0.08 -5.64,0 -9.76,2.4 -9.76,6.72 0,4.12 2.72,6.36 7.44,6.36 2.68,0 4.92,-1.12 6.36,-3.12 h 0.08 v 2.64 z m -3.92,-7.92 c 0,3.16 -2.12,5.36 -5.64,5.36 -2.04,0 -3.84,-1.36 -3.84,-3.32 0,-2.64 2.8,-3.92 7.04,-3.92 0.76,0 2.44,0.08 2.44,0.08 z"
       style="fill:#000000"
       id="path40248" />
    <path
       d="M 76.999916,28.4 V 15.32 c 0,-5.04 -2.44,-7.8000004 -7.04,-7.8000004 -2.48,0 -5.2,1.52 -6.36,3.9600004 -1,-2.5600004 -3.24,-3.9600004 -5.8,-3.9600004 -3,0 -5,1.04 -6.48,3.4400004 h -0.08 V 7.9999996 h -3.52 V 28.4 h 3.76 V 18.12 c 0,-4.24 1.8,-7.56 5.36,-7.56 2.56,0 3.64,2.28 3.64,5.6 V 28.4 h 3.76 V 18.16 c 0,-4.24 1.76,-7.6 5.36,-7.6 2.48,0 3.64,2.16 3.64,5.6 V 28.4 Z"
       style="fill:#000000"
       id="path40250" />
    <path
       d="M 87.079914,36.8 V 25.6 h 0.08 c 1.4,2.24 3.68,3.28 6.8,3.28 6.04,0 8.759996,-5.28 8.759996,-11.04 0,-5.72 -3.079996,-10.3200004 -8.799996,-10.3200004 -2.92,0 -5.48,1.28 -6.92,3.3600004 h -0.08 V 7.9999996 h -3.6 V 36.8 Z m 6,-10.96 c -4.12,0 -6,-4 -6,-7.6 0,-3.88 2.04,-7.64 6,-7.68 3.04,-0.04 5.64,2.28 5.64,7.52 0,4.08 -2.04,7.76 -5.64,7.76 z"
       style="fill:#000000"
       id="path40252" />
    <path
       d="M 125.79984,28.4 V 7.9999996 h -3.76 V 17.48 c 0,5.32 -2.28,8.36 -6.04,8.36 -1.72,0 -4.48,-0.56 -4.48,-6.84 V 7.9999996 h -3.76 V 20.16 c 0,5.6 2.52,8.72 7.64,8.72 3.08,0 5.68,-1.6 6.68,-3.72 h 0.08 v 3.24 z"
       style="fill:#000000"
       id="path40254" />
    <path
       d="m 130.47977,27.76 c 1.56,0.84 3.4,1.12 5.56,1.12 4.28,0 7.16,-2.48 7.16,-6.36 0,-2.72 -1.4,-4.32 -4.88,-5.84 -2.56,-1.12 -3.96,-1.96 -3.96,-3.64 0,-1.6 1.56,-2.48 3.6,-2.48 0.96,0 3.2,0.56 3.96,1.04 l 0.32,-3.2800004 c -1.48,-0.44 -2.92,-0.8 -4.68,-0.8 -3.96,0 -7.2,2 -7.2,6.2400004 0,2.08 0.96,3.84 5.16,5.72 2.96,1.32 3.68,2.32 3.68,3.44 0,2.04 -1.84,2.92 -3.84,2.92 -1.28,0 -3.4,-0.6 -4.68,-1.44 z"
       style="fill:#000000"
       id="path40256" />
  </g>
</svg>
