<?xml version="1.0" encoding="UTF-8" standalone="no"?>
<svg
   viewBox="0 0 102.86667 46.946667"
   height="46.946667"
   width="102.86667"
   xml:space="preserve"
   id="svg2"
   version="1.1"
   sodipodi:docname="WKS_Logo.svg"
   inkscape:version="1.1.2 (0a00cf5339, 2022-02-04)"
   xmlns:inkscape="http://www.inkscape.org/namespaces/inkscape"
   xmlns:sodipodi="http://sodipodi.sourceforge.net/DTD/sodipodi-0.dtd"
   xmlns="http://www.w3.org/2000/svg"
   xmlns:svg="http://www.w3.org/2000/svg"
   xmlns:rdf="http://www.w3.org/1999/02/22-rdf-syntax-ns#"
   xmlns:cc="http://creativecommons.org/ns#"
   xmlns:dc="http://purl.org/dc/elements/1.1/"><sodipodi:namedview
     id="namedview15"
     pagecolor="#ffffff"
     bordercolor="#666666"
     borderopacity="1.0"
     inkscape:pageshadow="2"
     inkscape:pageopacity="0.0"
     inkscape:pagecheckerboard="0"
     showgrid="false"
     inkscape:zoom="13.541801"
     inkscape:cx="50.805648"
     inkscape:cy="23.445921"
     inkscape:window-width="3018"
     inkscape:window-height="1664"
     inkscape:window-x="54"
     inkscape:window-y="27"
     inkscape:window-maximized="1"
     inkscape:current-layer="g12" /><metadata
     id="metadata8"><rdf:RDF><cc:Work
         rdf:about=""><dc:format>image/svg+xml</dc:format><dc:type
           rdf:resource="http://purl.org/dc/dcmitype/StillImage" /></cc:Work></rdf:RDF></metadata><defs
     id="defs6" /><g
     transform="matrix(1.3333333,0,0,-1.3333333,0,46.946667)"
     id="g10"><g
       transform="scale(0.1)"
       id="g12"><path
         id="path14"
         style="fill:#231f20;fill-opacity:1;fill-rule:nonzero;stroke:none"
         d="m 161.555,126.309 h 70.59 l 40.707,221.964 H 221.965 L 197.48,192.449 h -0.628 L 172.68,348.273 H 103.352 L 80.1406,192.449 H 79.5039 L 55.9727,348.273 H 0 L 43.8906,126.309 h 69.6404 l 23.852,171.086 h 0.64 l 23.532,-171.086 v 0" /><path
         id="path16"
         style="fill:#231f20;fill-opacity:1;fill-rule:nonzero;stroke:none"
         d="m 414.324,126.309 h 69.653 l -68.379,117.972 63.59,103.992 h -66.141 l -48.336,-90 h -0.629 v 90 H 304.293 V 126.309 h 59.789 v 100.175 h 0.629 l 49.613,-100.175 v 0" /><path
         id="path18"
         style="fill:#231f20;fill-opacity:1;fill-rule:nonzero;stroke:none"
         d="m 501.758,131.074 c 11.125,-2.859 32.43,-8.586 59.148,-8.586 51.828,0 86.821,24.809 86.821,73.453 0,33.082 -17.5,47.082 -37.532,56.289 l -26.699,12.09 c -19.734,8.903 -25.461,13.993 -25.461,25.442 0,13.672 10.813,20.98 28.625,20.98 17.168,0 35.305,-5.719 45.789,-11.117 L 635,343.184 c -18.137,7.32 -39.121,8.906 -55.977,8.906 -47.058,0 -80.769,-23.856 -80.769,-65.828 0,-31.481 11.141,-51.199 47.703,-65.508 l 13.035,-5.078 c 17.168,-6.692 27.043,-10.821 27.043,-25.449 0,-13.997 -7.949,-23.848 -30.539,-23.848 -21.308,0 -42.93,9.219 -50.242,13.355 l -3.496,-48.66 v 0 0" /><path
         id="path20"
         style="fill:#ec282c;fill-opacity:1;fill-rule:nonzero;stroke:none"
         d="m 709.172,319.645 c 0,17.214 13.973,31.175 31.18,31.175 17.226,0 31.179,-13.961 31.179,-31.175 0,-17.231 -13.953,-31.192 -31.179,-31.192 -17.207,0 -31.18,13.961 -31.18,31.192 v 0 0" /><path
         id="path22"
         style="fill:#ec282c;fill-opacity:1;fill-rule:nonzero;stroke:none"
         d="m 709.18,243.73 c 0,17.223 13.972,31.184 31.179,31.184 17.231,0 31.184,-13.961 31.184,-31.184 0,-17.214 -13.953,-31.175 -31.184,-31.175 -17.207,0 -31.179,13.961 -31.179,31.175 v 0 0" /><path
         id="path24"
         style="fill:#ec282c;fill-opacity:1;fill-rule:nonzero;stroke:none"
         d="m 709.18,153.691 c 0,17.215 13.972,31.18 31.179,31.18 17.231,0 31.184,-13.965 31.184,-31.18 0,-17.226 -13.953,-31.179 -31.184,-31.179 -17.207,0 -31.179,13.953 -31.179,31.179 v 0 0" /><path
         id="path26"
         style="fill:#ec282c;fill-opacity:1;fill-rule:nonzero;stroke:none"
         d="m 709.18,31.7695 c 0,17.2227 13.972,31.1797 31.179,31.1797 17.231,0 31.184,-13.957 31.184,-31.1797 0,-17.2187 -13.953,-31.183562 -31.184,-31.183562 -17.207,0 -31.179,13.964862 -31.179,31.183562 v 0 0" /><path
         id="path28"
         style="fill:#231f20;fill-opacity:1;fill-rule:nonzero;stroke:none"
         d="m 641.289,49.375 h -4.285 v -3.9531 h -0.129 c -3.203,4.1484 -6.191,4.7656 -10.82,4.7656 -10.203,0 -14.285,-7.6172 -14.285,-18.1562 0,-7.6836 3.543,-17.336 14.617,-17.336 4.426,0 8.23,1.7578 10.547,6.7969 h 0.136 c 0,-9.8008 -0.949,-17.82032 -11.972,-17.82032 -3.743,0 -7.547,1.09375 -10.196,2.44921 L 614.563,1.83594 C 616.328,1.28906 620.48,0 625.027,0 c 11.907,0 16.262,7.89063 16.262,17.5391 V 49.375 Z M 616.477,32.0313 c 0,6.7304 2.097,14.4843 10.253,14.4843 7.821,0 10.274,-6.125 10.274,-14.4843 0,-6.3282 -2.793,-13.6719 -10.539,-13.6719 -7.277,0 -9.988,6.875 -9.988,13.6719 z M 571.25,14.6953 h 4.277 v 19.1641 c 0,5.7812 2.453,12.6562 10.274,12.6562 5.91,0 8.23,-4.2187 8.23,-10.7422 V 14.6953 h 4.282 v 22.1602 c 0,7.6172 -3.262,13.332 -11.829,13.332 -7.214,0 -9.796,-3.8789 -11.218,-7.0039 h -0.149 v 6.1914 h -4.14 c 0.273,-2.793 0.273,-5.5078 0.273,-8.1641 V 14.6953 Z M 555.742,49.375 h -4.277 V 30.1953 c 0,-5.7812 -2.449,-12.6562 -10.274,-12.6562 -5.918,0 -8.23,4.2187 -8.23,10.75 V 49.375 h -4.277 V 27.207 c 0,-7.6289 3.257,-13.3281 11.824,-13.3281 7.219,0 9.797,3.875 11.222,6.9883 h 0.145 v -6.1719 h 4.141 c -0.274,2.7774 -0.274,5.5 -0.274,8.1563 V 49.375 Z m -66.98,-17.3437 c 0,6.7304 2.105,14.4843 10.269,14.4843 7.617,0 10.266,-8.164 10.266,-14.4843 0,-6.3282 -2.649,-14.4922 -10.266,-14.4922 -8.164,0 -10.269,7.7539 -10.269,14.4922 z m 24.824,33.664 h -4.289 v -22.168 h -0.137 c -0.605,1.6993 -4.004,6.6602 -10.808,6.6602 -10.2,0 -14.282,-7.6172 -14.282,-18.1562 0,-10.2735 4.758,-18.1524 14.282,-18.1524 4.961,0 8.503,1.8945 10.808,6.3164 h 0.137 v -5.5 h 4.289 v 51 z m -47.336,-51 h 4.297 v 51 h -4.297 v -51 z m -15.566,49.6406 h -4.278 v -5.7226 h 4.278 v 5.7226 z m -4.278,-49.6406 h 4.278 V 49.375 h -4.278 V 14.6953 Z M 408.73,58.0742 h 6.465 c 4.004,0 10.325,-0.957 10.325,-7.8203 0,-7.5508 -6.582,-8.8398 -11.555,-8.8398 h -5.235 v 16.6601 z m -0.136,-20.7383 h 4.148 c 6.938,0 14.211,-0.8828 14.211,-9.3281 0,-7.539 -7.14,-9.2383 -13.457,-9.2383 h -4.902 v 18.5664 z m -4.688,-22.6406 h 9.446 c 9.863,0 18.289,3.1875 18.289,13.5274 0,6.25 -4.082,10.1953 -10.059,11.289 v 0.1289 c 5.852,1.1602 8.645,4.7617 8.645,10.8086 0,9.1211 -7.289,11.6992 -15.032,11.6992 H 403.906 V 14.6953 Z M 383.23,62.1484 h -4.625 L 362.766,19.3867 347.461,62.1484 H 342.5 l 17.68,-47.4531 h 5.031 L 383.23,62.1484 Z M 304.961,14.6953 h 4.691 V 38.418 l 22.989,-23.7227 h 6.461 l -24.961,25.0899 22.992,22.3632 h -6.121 l -21.36,-21.2812 v 21.2812 h -4.691 v -47.4531 0" /></g></g></svg>
